{
    "success": true,
    "data": {
        "items": [
            {
                "id": "cmejzo4sz0004zsg8cp96itc1",
                "name": "Super Admin",
                "email": "superadmin@catcarwash.com",
                "phone": "+1234567890",
                "line": "@superadmin",
                "address": "CATCAR WASH SERVICE",
                "status": "ACTIVE",
                "created_at": "2025-08-20T13:08:52.691Z",
                "updated_at": "2025-08-20T13:08:52.691Z",
                "permission": {
                    "id": "cmejzo4lm0000zsg8wsykommr",
                    "name": "ADMIN"
                }
            }
        ],
        "total": 2,
        "page": 2,
        "limit": 1,
        "totalPages": 2
    },
    "message": "Emps searched successfully"
}