{
  "success": true,
  "message": "Device states fetched successfully",
  "data": {
    "items": [
      {
        "id": "cmfdx1ea00039zs30e1q3nez5",
        "device_id": "cmfdx1e8x000hzs30xn9dkbv4",
        "state_data": {
          "rssi": -52,
          "status": "normal",
          "uptime": 37168,
          "timestamp": 1757504991197,
          "state_at": "2025-09-10 17:50:23"
        },
        "hash_state": "eyJ0aW1lc3RhbXAiOjE3NTc1MDQ5OTExOTcsInJzc2kiOi01MiwidXB0aW1lIjozNzE2OCwic3RhdHVzIjoibm9ybWFsIn0=",
        "created_at": "2025-09-10 17:50:23",
        "device": {
          "id": "cmfdx1e8x000hzs30xn9dkbv4",
          "name": "เครื่องล้างรถหมายเลข 4",
          "type": "WASH",
          "status": "DEPLOYED",
          "owner": {
            "id": "cmfdx1e8l000azs30mrb4cmdh",
            "fullname": "นางสาวสมหญิง รักดี",
            "email": "user2@catcarwash.com"
          }
        }
      },
      {
        "id": "cmfdx1e9z0026zs30mo86we95",
        "device_id": "cmfdx1e8q000dzs30ksu7xay9",
        "state_data": {
          "rssi": -64,
          "status": "normal",
          "uptime": 68713,
          "timestamp": 1757504837740,
          "state_at": "2025-09-10 14:14:05"
        },
        "hash_state": "eyJ0aW1lc3RhbXAiOjE3NTc1MDQ4Mzc3NDAsInJzc2kiOi02NCwidXB0aW1lIjo2ODcxMywic3RhdHVzIjoibm9ybWFsIn0=",
        "created_at": "2025-09-10 14:14:05",
        "device": {
          "id": "cmfdx1e8q000dzs30ksu7xay9",
          "name": "เครื่องเป่าลมหมายเลข 2",
          "type": "DRYING",
          "status": "DEPLOYED",
          "owner": {
            "id": "cmfdx1e8h0008zs300ov04roq",
            "fullname": "นายสมชาย ใจดี",
            "email": "user@catcarwash.com"
          }
        }
      },
      {
        "id": "cmfdx1ea0002zzs30oh1n9drh",
        "device_id": "cmfdx1e8x000gzs301bfhvp3d",
        "state_data": {
          "rssi": -53,
          "status": "normal",
          "uptime": 74191,
          "timestamp": 1757504860099,
          "state_at": "2025-09-10 05:02:21"
        },
        "hash_state": "eyJ0aW1lc3RhbXAiOjE3NTc1MDQ4NjAwOTksInJzc2kiOi01MywidXB0aW1lIjo3NDE5MSwic3RhdHVzIjoibm9ybWFsIn0=",
        "created_at": "2025-09-10 05:02:21",
        "device": {
          "id": "cmfdx1e8x000gzs301bfhvp3d",
          "name": "เครื่องล้างรถหมายเลข 3",
          "type": "WASH",
          "status": "DEPLOYED",
          "owner": {
            "id": "cmfdx1e8l000azs30mrb4cmdh",
            "fullname": "นางสาวสมหญิง รักดี",
            "email": "user2@catcarwash.com"
          }
        }
      },
      {
        "id": "cmfdx1ea00035zs30co35b728",
        "device_id": "cmfdx1e8x000hzs30xn9dkbv4",
        "state_data": {
          "rssi": -63,
          "status": "normal",
          "uptime": 35467,
          "timestamp": 1757504657114,
          "state_at": "2025-09-09 19:47:57"
        },
        "hash_state": "eyJ0aW1lc3RhbXAiOjE3NTc1MDQ2NTcxMTQsInJzc2kiOi02MywidXB0aW1lIjozNTQ2Nywic3RhdHVzIjoibm9ybWFsIn0=",
        "created_at": "2025-09-09 19:47:57",
        "device": {
          "id": "cmfdx1e8x000hzs30xn9dkbv4",
          "name": "เครื่องล้างรถหมายเลข 4",
          "type": "WASH",
          "status": "DEPLOYED",
          "owner": {
            "id": "cmfdx1e8l000azs30mrb4cmdh",
            "fullname": "นางสาวสมหญิง รักดี",
            "email": "user2@catcarwash.com"
          }
        }
      },
      {
        "id": "cmfdx1e9z001rzs300wrzbb2g",
        "device_id": "cmfdx1e8q000czs30lytn5fq3",
        "state_data": {
          "rssi": -37,
          "status": "normal",
          "uptime": 66995,
          "timestamp": 1757504674394,
          "state_at": "2025-09-09 15:59:25"
        },
        "hash_state": "eyJ0aW1lc3RhbXAiOjE3NTc1MDQ2NzQzOTQsInJzc2kiOi0zNywidXB0aW1lIjo2Njk5NSwic3RhdHVzIjoibm9ybWFsIn0=",
        "created_at": "2025-09-09 15:59:25",
        "device": {
          "id": "cmfdx1e8q000czs30lytn5fq3",
          "name": "เครื่องเป่าลมหมายเลข 1",
          "type": "DRYING",
          "status": "DISABLED",
          "owner": {
            "id": "cmfdx1e8h0008zs300ov04roq",
            "fullname": "นายสมชาย ใจดี",
            "email": "user@catcarwash.com"
          }
        }
      },
      {
        "id": "cmfdx1e9z002qzs30v4smcbet",
        "device_id": "cmfdx1e8x000fzs30a78ojpnf",
        "state_data": {
          "rssi": -55,
          "status": "normal",
          "uptime": 49867,
          "timestamp": 1757504612357,
          "state_at": "2025-09-09 12:49:58"
        },
        "hash_state": "eyJ0aW1lc3RhbXAiOjE3NTc1MDQ2MTIzNTcsInJzc2kiOi01NSwidXB0aW1lIjo0OTg2Nywic3RhdHVzIjoibm9ybWFsIn0=",
        "created_at": "2025-09-09 12:49:58",
        "device": {
          "id": "cmfdx1e8x000fzs30a78ojpnf",
          "name": "เครื่องเป่าลมหมายเลข 3",
          "type": "DRYING",
          "status": "DEPLOYED",
          "owner": {
            "id": "cmfdx1e8l000azs30mrb4cmdh",
            "fullname": "นางสาวสมหญิง รักดี",
            "email": "user2@catcarwash.com"
          }
        }
      },
      {
        "id": "cmfdx1e9z001szs30n7pme0x8",
        "device_id": "cmfdx1e8q000czs30lytn5fq3",
        "state_data": {
          "rssi": -73,
          "status": "normal",
          "uptime": 68185,
          "timestamp": 1757504620795,
          "state_at": "2025-09-09 08:49:28"
        },
        "hash_state": "eyJ0aW1lc3RhbXAiOjE3NTc1MDQ2MjA3OTUsInJzc2kiOi03MywidXB0aW1lIjo2ODE4NSwic3RhdHVzIjoibm9ybWFsIn0=",
        "created_at": "2025-09-09 08:49:28",
        "device": {
          "id": "cmfdx1e8q000czs30lytn5fq3",
          "name": "เครื่องเป่าลมหมายเลข 1",
          "type": "DRYING",
          "status": "DISABLED",
          "owner": {
            "id": "cmfdx1e8h0008zs300ov04roq",
            "fullname": "นายสมชาย ใจดี",
            "email": "user@catcarwash.com"
          }
        }
      },
      {
        "id": "cmfdx1e9z001nzs302pjy1bom",
        "device_id": "cmfdx1e8q000bzs30v59y5d2q",
        "state_data": {
          "rssi": -73,
          "status": "error",
          "uptime": 32670,
          "timestamp": 1757504964737,
          "state_at": "2025-09-09 00:32:46"
        },
        "hash_state": "eyJ0aW1lc3RhbXAiOjE3NTc1MDQ5NjQ3MzcsInJzc2kiOi03MywidXB0aW1lIjozMjY3MCwic3RhdHVzIjoiZXJyb3IifQ==",
        "created_at": "2025-09-09 00:32:46",
        "device": {
          "id": "cmfdx1e8q000bzs30v59y5d2q",
          "name": "เครื่องล้างรถหมายเลข 1",
          "type": "WASH",
          "status": "DEPLOYED",
          "owner": {
            "id": "cmfdx1e8h0008zs300ov04roq",
            "fullname": "นายสมชาย ใจดี",
            "email": "user@catcarwash.com"
          }
        }
      },
      {
        "id": "cmfdx1e9z001qzs30iev98m2j",
        "device_id": "cmfdx1e8q000bzs30v59y5d2q",
        "state_data": {
          "rssi": -31,
          "status": "normal",
          "uptime": 23960,
          "timestamp": 1757504734880,
          "state_at": "2025-09-08 10:33:50"
        },
        "hash_state": "eyJ0aW1lc3RhbXAiOjE3NTc1MDQ3MzQ4ODAsInJzc2kiOi0zMSwidXB0aW1lIjoyMzk2MCwic3RhdHVzIjoibm9ybWFsIn0=",
        "created_at": "2025-09-08 10:33:50",
        "device": {
          "id": "cmfdx1e8q000bzs30v59y5d2q",
          "name": "เครื่องล้างรถหมายเลข 1",
          "type": "WASH",
          "status": "DEPLOYED",
          "owner": {
            "id": "cmfdx1e8h0008zs300ov04roq",
            "fullname": "นายสมชาย ใจดี",
            "email": "user@catcarwash.com"
          }
        }
      },
      {
        "id": "cmfdx1ea00031zs30tjg6douc",
        "device_id": "cmfdx1e8x000gzs301bfhvp3d",
        "state_data": {
          "rssi": -35,
          "status": "normal",
          "uptime": 7955,
          "timestamp": 1757505182854,
          "state_at": "2025-09-07 11:47:09"
        },
        "hash_state": "eyJ0aW1lc3RhbXAiOjE3NTc1MDUxODI4NTQsInJzc2kiOi0zNSwidXB0aW1lIjo3OTU1LCJzdGF0dXMiOiJub3JtYWwifQ==",
        "created_at": "2025-09-07 11:47:09",
        "device": {
          "id": "cmfdx1e8x000gzs301bfhvp3d",
          "name": "เครื่องล้างรถหมายเลข 3",
          "type": "WASH",
          "status": "DEPLOYED",
          "owner": {
            "id": "cmfdx1e8l000azs30mrb4cmdh",
            "fullname": "นางสาวสมหญิง รักดี",
            "email": "user2@catcarwash.com"
          }
        }
      },
      {
        "id": "cmfdx1e9z002azs30sa4jqvpn",
        "device_id": "cmfdx1e8q000dzs30ksu7xay9",
        "state_data": {
          "rssi": -50,
          "status": "error",
          "uptime": 77792,
          "timestamp": 1757504783115,
          "state_at": "2025-09-06 22:29:01"
        },
        "hash_state": "eyJ0aW1lc3RhbXAiOjE3NTc1MDQ3ODMxMTUsInJzc2kiOi01MCwidXB0aW1lIjo3Nzc5Miwic3RhdHVzIjoiZXJyb3IifQ==",
        "created_at": "2025-09-06 22:29:01",
        "device": {
          "id": "cmfdx1e8q000dzs30ksu7xay9",
          "name": "เครื่องเป่าลมหมายเลข 2",
          "type": "DRYING",
          "status": "DEPLOYED",
          "owner": {
            "id": "cmfdx1e8h0008zs300ov04roq",
            "fullname": "นายสมชาย ใจดี",
            "email": "user@catcarwash.com"
          }
        }
      },
      {
        "id": "cmfdx1e9z002szs30n51ywktl",
        "device_id": "cmfdx1e8x000fzs30a78ojpnf",
        "state_data": {
          "rssi": -63,
          "status": "normal",
          "uptime": 48347,
          "timestamp": 1757504746196,
          "state_at": "2025-09-06 20:52:40"
        },
        "hash_state": "eyJ0aW1lc3RhbXAiOjE3NTc1MDQ3NDYxOTYsInJzc2kiOi02MywidXB0aW1lIjo0ODM0Nywic3RhdHVzIjoibm9ybWFsIn0=",
        "created_at": "2025-09-06 20:52:40",
        "device": {
          "id": "cmfdx1e8x000fzs30a78ojpnf",
          "name": "เครื่องเป่าลมหมายเลข 3",
          "type": "DRYING",
          "status": "DEPLOYED",
          "owner": {
            "id": "cmfdx1e8l000azs30mrb4cmdh",
            "fullname": "นางสาวสมหญิง รักดี",
            "email": "user2@catcarwash.com"
          }
        }
      },
      {
        "id": "cmfdx1e9z002pzs30089x16lf",
        "device_id": "cmfdx1e8x000fzs30a78ojpnf",
        "state_data": {
          "rssi": -73,
          "status": "normal",
          "uptime": 81781,
          "timestamp": 1757505193946,
          "state_at": "2025-09-06 14:27:28"
        },
        "hash_state": "eyJ0aW1lc3RhbXAiOjE3NTc1MDUxOTM5NDYsInJzc2kiOi03MywidXB0aW1lIjo4MTc4MSwic3RhdHVzIjoibm9ybWFsIn0=",
        "created_at": "2025-09-06 14:27:28",
        "device": {
          "id": "cmfdx1e8x000fzs30a78ojpnf",
          "name": "เครื่องเป่าลมหมายเลข 3",
          "type": "DRYING",
          "status": "DEPLOYED",
          "owner": {
            "id": "cmfdx1e8l000azs30mrb4cmdh",
            "fullname": "นางสาวสมหญิง รักดี",
            "email": "user2@catcarwash.com"
          }
        }
      },
      {
        "id": "cmfdx1ea0003dzs30r28hr77z",
        "device_id": "cmfdx1e8x000hzs30xn9dkbv4",
        "state_data": {
          "rssi": -52,
          "status": "normal",
          "uptime": 43357,
          "timestamp": 1757505002786,
          "state_at": "2025-09-06 14:01:59"
        },
        "hash_state": "eyJ0aW1lc3RhbXAiOjE3NTc1MDUwMDI3ODYsInJzc2kiOi01MiwidXB0aW1lIjo0MzM1Nywic3RhdHVzIjoibm9ybWFsIn0=",
        "created_at": "2025-09-06 14:01:59",
        "device": {
          "id": "cmfdx1e8x000hzs30xn9dkbv4",
          "name": "เครื่องล้างรถหมายเลข 4",
          "type": "WASH",
          "status": "DEPLOYED",
          "owner": {
            "id": "cmfdx1e8l000azs30mrb4cmdh",
            "fullname": "นางสาวสมหญิง รักดี",
            "email": "user2@catcarwash.com"
          }
        }
      },
      {
        "id": "cmfdx1e9z001jzs30ken4evh9",
        "device_id": "cmfdx1e8q000bzs30v59y5d2q",
        "state_data": {
          "rssi": -33,
          "status": "normal",
          "uptime": 14800,
          "timestamp": 1757504704826,
          "state_at": "2025-09-06 07:03:31"
        },
        "hash_state": "eyJ0aW1lc3RhbXAiOjE3NTc1MDQ3MDQ4MjYsInJzc2kiOi0zMywidXB0aW1lIjoxNDgwMCwic3RhdHVzIjoibm9ybWFsIn0=",
        "created_at": "2025-09-06 07:03:31",
        "device": {
          "id": "cmfdx1e8q000bzs30v59y5d2q",
          "name": "เครื่องล้างรถหมายเลข 1",
          "type": "WASH",
          "status": "DEPLOYED",
          "owner": {
            "id": "cmfdx1e8h0008zs300ov04roq",
            "fullname": "นายสมชาย ใจดี",
            "email": "user@catcarwash.com"
          }
        }
      },
      {
        "id": "cmfdx1e9z002uzs301oax2c8m",
        "device_id": "cmfdx1e8x000fzs30a78ojpnf",
        "state_data": {
          "rssi": -71,
          "status": "normal",
          "uptime": 28768,
          "timestamp": 1757504649191,
          "state_at": "2025-09-06 06:03:45"
        },
        "hash_state": "eyJ0aW1lc3RhbXAiOjE3NTc1MDQ2NDkxOTEsInJzc2kiOi03MSwidXB0aW1lIjoyODc2OCwic3RhdHVzIjoibm9ybWFsIn0=",
        "created_at": "2025-09-06 06:03:45",
        "device": {
          "id": "cmfdx1e8x000fzs30a78ojpnf",
          "name": "เครื่องเป่าลมหมายเลข 3",
          "type": "DRYING",
          "status": "DEPLOYED",
          "owner": {
            "id": "cmfdx1e8l000azs30mrb4cmdh",
            "fullname": "นางสาวสมหญิง รักดี",
            "email": "user2@catcarwash.com"
          }
        }
      },
      {
        "id": "cmfdx1ea00030zs30m33xpo6f",
        "device_id": "cmfdx1e8x000gzs301bfhvp3d",
        "state_data": {
          "rssi": -67,
          "status": "normal",
          "uptime": 43192,
          "timestamp": 1757504667103,
          "state_at": "2025-09-05 20:53:13"
        },
        "hash_state": "eyJ0aW1lc3RhbXAiOjE3NTc1MDQ2NjcxMDMsInJzc2kiOi02NywidXB0aW1lIjo0MzE5Miwic3RhdHVzIjoibm9ybWFsIn0=",
        "created_at": "2025-09-05 20:53:13",
        "device": {
          "id": "cmfdx1e8x000gzs301bfhvp3d",
          "name": "เครื่องล้างรถหมายเลข 3",
          "type": "WASH",
          "status": "DEPLOYED",
          "owner": {
            "id": "cmfdx1e8l000azs30mrb4cmdh",
            "fullname": "นางสาวสมหญิง รักดี",
            "email": "user2@catcarwash.com"
          }
        }
      },
      {
        "id": "cmfdx1e9z0022zs30xsvtbz8x",
        "device_id": "cmfdx1e8q000dzs30ksu7xay9",
        "state_data": {
          "rssi": -34,
          "status": "error",
          "uptime": 31267,
          "timestamp": 1757504922172,
          "state_at": "2025-09-05 18:21:20"
        },
        "hash_state": "eyJ0aW1lc3RhbXAiOjE3NTc1MDQ5MjIxNzIsInJzc2kiOi0zNCwidXB0aW1lIjozMTI2Nywic3RhdHVzIjoiZXJyb3IifQ==",
        "created_at": "2025-09-05 18:21:20",
        "device": {
          "id": "cmfdx1e8q000dzs30ksu7xay9",
          "name": "เครื่องเป่าลมหมายเลข 2",
          "type": "DRYING",
          "status": "DEPLOYED",
          "owner": {
            "id": "cmfdx1e8h0008zs300ov04roq",
            "fullname": "นายสมชาย ใจดี",
            "email": "user@catcarwash.com"
          }
        }
      },
      {
        "id": "cmfdx1ea0003azs30cwq6jidq",
        "device_id": "cmfdx1e8x000hzs30xn9dkbv4",
        "state_data": {
          "rssi": -68,
          "status": "error",
          "uptime": 46650,
          "timestamp": 1757504895115,
          "state_at": "2025-09-05 16:36:23"
        },
        "hash_state": "eyJ0aW1lc3RhbXAiOjE3NTc1MDQ4OTUxMTUsInJzc2kiOi02OCwidXB0aW1lIjo0NjY1MCwic3RhdHVzIjoiZXJyb3IifQ==",
        "created_at": "2025-09-05 16:36:23",
        "device": {
          "id": "cmfdx1e8x000hzs30xn9dkbv4",
          "name": "เครื่องล้างรถหมายเลข 4",
          "type": "WASH",
          "status": "DEPLOYED",
          "owner": {
            "id": "cmfdx1e8l000azs30mrb4cmdh",
            "fullname": "นางสาวสมหญิง รักดี",
            "email": "user2@catcarwash.com"
          }
        }
      },
      {
        "id": "cmfdx1ea00037zs30a4vvb8al",
        "device_id": "cmfdx1e8x000hzs30xn9dkbv4",
        "state_data": {
          "rssi": -67,
          "status": "normal",
          "uptime": 81580,
          "timestamp": 1757505152535,
          "state_at": "2025-09-05 15:47:29"
        },
        "hash_state": "eyJ0aW1lc3RhbXAiOjE3NTc1MDUxNTI1MzUsInJzc2kiOi02NywidXB0aW1lIjo4MTU4MCwic3RhdHVzIjoibm9ybWFsIn0=",
        "created_at": "2025-09-05 15:47:29",
        "device": {
          "id": "cmfdx1e8x000hzs30xn9dkbv4",
          "name": "เครื่องล้างรถหมายเลข 4",
          "type": "WASH",
          "status": "DEPLOYED",
          "owner": {
            "id": "cmfdx1e8l000azs30mrb4cmdh",
            "fullname": "นางสาวสมหญิง รักดี",
            "email": "user2@catcarwash.com"
          }
        }
      }
    ],
    "total": 70,
    "page": 1,
    "limit": 20,
    "totalPages": 4
  }
}
